<?xml version="1.0" encoding="UTF-8" standalone="no"?>
<svg
   xmlns:dc="http://purl.org/dc/elements/1.1/"
   xmlns:cc="http://creativecommons.org/ns#"
   xmlns:rdf="http://www.w3.org/1999/02/22-rdf-syntax-ns#"
   xmlns:svg="http://www.w3.org/2000/svg"
   xmlns="http://www.w3.org/2000/svg"
   xmlns:sodipodi="http://sodipodi.sourceforge.net/DTD/sodipodi-0.dtd"
   xmlns:inkscape="http://www.inkscape.org/namespaces/inkscape"
   width="330.28629"
   height="209.68494"
   viewBox="0 0 264.22903 167.74795"
   version="1.1"
   id="svg2"
   inkscape:version="0.91 r13725"
   sodipodi:docname="uEA02-tortue.svg">
  <metadata
     id="metadata11474">
    <rdf:RDF>
      <cc:Work
         rdf:about="">
        <dc:format>image/svg+xml</dc:format>
        <dc:type
           rdf:resource="http://purl.org/dc/dcmitype/StillImage" />
        <dc:title />
      </cc:Work>
    </rdf:RDF>
  </metadata>
  <defs
     id="defs11472" />
  <sodipodi:namedview
     pagecolor="#ffffff"
     bordercolor="#666666"
     borderopacity="1"
     objecttolerance="10"
     gridtolerance="10"
     guidetolerance="10"
     inkscape:pageopacity="0"
     inkscape:pageshadow="2"
     inkscape:window-width="1402"
     inkscape:window-height="868"
     id="namedview11470"
     showgrid="false"
     units="in"
     fit-margin-top="40"
     fit-margin-left="10"
     fit-margin-right="10"
     fit-margin-bottom="10"
     inkscape:zoom="1.3409486"
     inkscape:cx="-106.65992"
     inkscape:cy="85.903893"
     inkscape:window-x="220"
     inkscape:window-y="127"
     inkscape:window-maximized="0"
     inkscape:current-layer="svg2" />
  <path
     style="fill:#000000;stroke:#000000;stroke-width:0.09375"
     d="m 135.25332,34.23551 c 13.98263,3.11471 25.97386,12.47698 34.815,23.54 7.90564,8.76766 14.86039,19.744 26.785,23.29 8.51246,-0.32896 1.27547,9.53449 3.795,9.53 6.50091,-1.22897 11.90486,-5.50846 17.99,-7.87 8.41998,-4.35222 18.60537,-8.27914 27.99,-4.81 4.81336,3.32586 10.90099,7.60165 9.29,14.45 -1.64142,7.72619 -9.43099,12.11491 -16.705,13.66 -13.41896,4.10742 -26.81418,7.49725 -40.005,12.08 -4.39486,-0.24102 -8.73861,4.07102 -3.40143,5.82 6.72614,1.8727 8.77855,5.9528 15.71613,6.35233 5.15888,1.24779 10.89214,3.22876 4.84937,9.78691 -6.02555,5.90268 -9.7328,11.15622 -15.84256,7.04085 -9.10512,-5.64564 -15.6958,-11.80876 -24.82649,-17.40628 -4.01668,-2.85539 -8.57604,-5.22561 -9.57502,1.02619 -1.31626,5.12975 -3.5407,8.69242 0.43,12.78 4.54208,2.74697 6.62047,8.07308 4.13,10.28 -2.2681,7.62025 -13.01946,5.69945 -19.96875,5.7 -5.17773,-0.54192 -12.18786,-3.35171 -11.44125,-9.87 0.74003,-6.56331 2.65422,-12.85075 4.96,-19.05 -12.81174,-4.79448 -26.78508,-1.95597 -40.19,-2.92 -5.548979,0.66584 -5.752399,2.61379 -3.98253,7.8 -1.842439,10.37987 13.89336,6.14135 12.12591,14.67626 -2.79482,8.22414 -13.027769,7.82591 -21.313384,6.46374 -6.937725,0.30001 -11.178091,-5.81448 -11.584333,-12.19829 -2.110474,-6.51119 -0.07284,-21.10838 -10.634261,-18.77608 -6.278727,8.101 -11.106871,19.86791 -22.171406,22.24437 -8.525917,-0.71845 -12.048957,-9.71999 -10.19,-17.5 0.651928,-6.26807 6.918945,-8.70066 11.92,-10.98 5.472594,-3.30037 0.32347,-7.72597 -3.96,-8.6 -6.258871,-3.2357 -13.215554,-3.80508 -19.86,-5.31 -5.574924,-1.74142 -12.020193,-2.94339 -16.3400004,-7.4 1.591601,-2.75056 7.5669854,1.60891 10.6576034,1.4872 3.354892,1.01983 17.452607,4.79876 13.342397,-1.5272 -7.134519,-3.03924 0.245284,-7.74174 2.27,-11.48 11.881667,-14.92963 15.80119,-29.097522 31.933852,-40.323852 5.897205,-4.4384 16.839473,-11.033438 23.976148,-12.576148 15.156974,-1.97774 30.866764,-2.48138 45.015004,0.59 z"
     id="path9046"
     inkscape:connector-curvature="0"
     sodipodi:nodetypes="cccccccccccccccccccccccccccccccccccccc" />
</svg>
