<?xml version="1.0" standalone="no"?> 
<!DOCTYPE svg PUBLIC "-//W3C//DTD SVG 1.1//EN" "http://www.w3.org/Graphics/SVG/1.1/DTD/svg11.dtd" >
<svg xmlns="http://www.w3.org/2000/svg">
<defs>
  <font id="simplassofont" horiz-adv-x="1315.6748">
    <font-face font-family="simplassofont"
      units-per-em="1244.243" ascent="1244.243"
      descent="0" />
    <missing-glyph horiz-adv-x="0" />
    <glyph glyph-name="lievre"
      unicode="&#xEA01;"
      horiz-adv-x="2323.979447975436" d=" M1247.9013206686434 1068.3423581770082C1300.4465581281793 1070.3727118282964 1330.104249534153 1027.4874222748292 1357.3117565238977 990.4287979283752C1382.1943774264846 956.1888978107233 1394.8206737745165 913.7475223373956 1430.2521772741493 888.1404492776312C1459.1009947396699 871.9088155543918 1497.5233205367103 871.5320743966431 1527.4444964289603 854.6173206923097C1578.4596622929193 830.2071883978945 1614.4549757283535 780.6305775317592 1638.5740904491174 730.4714107979925C1650.6562340537528 693.3681997734012 1628.40253482019 651.1901135162265 1587.5101070543512 647.8783973163135C1549.6992371031802 646.1250668798455 1514.628137160986 636.5292326642365 1477.4669309097958 620.14002896956C1449.850593372052 592.1548261690378 1435.888714471179 554.1121705815946 1442.715813609532 522.2053578962758C1467.1484019681184 488.45272182612 1511.439310958625 495.3413961433312 1547.9431077949457 487.2961368862381C1602.6412634531162 475.5568225279508 1656.1503542409075 471.5623117971491 1711.1460364768368 457.3750911740703C1743.415726141155 451.8850065694622 1788.0738080533717 472.5787578785942 1806.80340228299 432.2020385082017C1794.1197616087704 392.1171177919533 1676.0685577106171 407.2530257637169 1676.0685577106171 407.2530257637169C1690.556754683632 396.4939674240362 1758.1605731461332 373.5263606199503 1750.6413065109764 350.1699710005168C1733.8757391807892 322.0217176470988 1704.4270518967112 336.9798647166833 1661.1826605866272 349.5724444234378C1620.3234287417372 363.0737461936563 1605.8925760949103 370.7094589122984 1568.335296943772 386.890192223416C1530.4722247796578 401.4695803439786 1485.2983042919125 392.2642863748264 1449.3237545795814 408.6863735582547C1406.9127761554364 409.0573867923886 1367.1394414658196 429.5909515104322 1327.4111490846276 444.6652843033377C1294.65640843421 456.6346268667882 1261.6084371487445 468.63007053671 1228.43835694622 487.5822076167676C1185.5908847066185 511.8418517362149 1042.9829006515056 508.2327391386251 959.1624842652539 532.0310901369656C910.8910589027772 551.0672584600526 869.2674747055302 582.458297659884 818.855042621936 596.2559543871221C794.4760884571963 601.8975686073554 759.70668085539 592.6321965302901 739.5294190221972 583.5466031466771C699.0967222164792 560.4169221403116 657.5877615815672 530.3889985806968 607.9718753846465 536.0158373616059C553.5991959678734 530.8467768395853 494.5066619295582 544.2890419425477 443.470198604159 530.8061606539537C370.6670397325288 521.3876317102362 322.334390677416 461.922802163978 271.4955862797528 415.2557812239873C237.9104333942899 387.2915374166915 192.9737856332795 359.5502270000815 147.7794659266611 374.6106956142378C109.8672898355592 407.142047243682 182.4897717711703 427.441613264057 199.0464391235274 451.4189618753569C245.9397716273358 494.3525482393025 286.9589752661786 543.2546310097657 327.7300101054103 591.0476445703325C311.0773805054946 594.6251884980004 280.4431952852885 561.8382282772502 256.1480901114629 554.3628323297787C207.3096654011721 525.8118018021814 158.3854910707676 493.2386623663664 107.8096374210437 471.9257745865182C84.8889995905984 456.8932946900246 25.6604078394219 471.1369483787164 66.182082731291 500.2914937671715C121.8767669183371 561.733758761323 187.4190275638581 616.0414392630775 260.3977993663118 652.7153033587223C304.793828773156 669.2414044277901 364.1637114764966 653.5343964356244 413.7969506783681 660.4989006506894C461.6460588363344 655.1104866902422 517.2863602940613 678.9913067706262 524.8148501880387 730.8778330144717C535.9942990670136 770.0468717627374 547.0807798403196 808.355745618182 566.0811681678271 845.8984446001194C597.3556180860828 880.8366957684773 521.7130038075675 887.9458951448544 544.1008340887759 923.934699576181C564.0419687799567 962.9994640786427 611.3624416603191 932.946676123337 620.6770673714667 905.2593904408202C635.1757894041236 909.4611478624084 657.0596860783164 914.9330723455562 673.8339754740075 923.8733196674463C727.1514411808707 950.822809734365 775.9918185923938 941.4205533009164 831.4722263642172 942.4614732378062C871.9056391603871 933.9903298419518 911.3263810974944 927.3346127817522 953.1315014193028 917.0582621866922C1004.2135798454882 898.894690954272 1054.348142543728 876.4367391718124 1102.2661940732023 851.7312933610347C1144.9222365019991 830.6603452638665 1188.5841153355454 803.5423370806016 1233.4114964446012 782.3518836680175C1273.6650003672366 752.1773773358993 1334.0229954571416 752.8686335721279 1353.4189815272975 805.5089024916349C1366.623602890291 823.9064073316829 1371.9833121426236 841.0438991565788 1346.970185707679 850.8339620547589C1287.1936399547071 886.5243286477514 1227.065412709801 930.870238722967 1194.6696436359182 994.6034128028344C1184.498153097032 1025.2229397457902 1187.7977625493047 1074.9245234907917 1228.069882223688 1047.6508199292728C1243.935384465874 1042.0655736846113 1246.650680619406 1043.5959056403524 1247.8962436454392 1047.6312929169499C1249.2816851697448 1052.113458235494 1241.9645231121297 1064.5220934861673 1247.9015810288074 1068.3478908304996z" />
    <glyph glyph-name="tortue"
      unicode="&#xEA02;"
      horiz-adv-x="1959.8756321196456" d=" M802.5755051209686 1041.0939628353376C885.5466021348504 1022.6116812059082 956.7009920919452 967.0571959309524 1009.1631601285242 901.410682672251C1056.0741935604913 849.3845353419754 1097.3427701413843 784.2523698625662 1168.1018457346531 763.2108698006161C1218.613669653815 765.1628754013998 1175.6703178395644 706.6344535779251 1190.6208792188888 706.6610966504795C1229.1964286175726 713.9536438391809 1261.262760896133 739.3475775955584 1297.371185511749 753.3606469853773C1347.334245210457 779.1861510461839 1407.7730168731716 802.487980550773 1463.4601834626749 781.9025576729068C1492.0220319506016 762.1673395691174 1528.1452319004406 736.7953611286533 1518.5858280130178 696.158148227002C1508.8458564868795 650.3119476168389 1462.6235672489877 624.2698573314804 1419.4605435982194 615.1014954220843C1339.8341906170276 590.728602533067 1260.3487076898323 570.6137948187411 1182.0761076201277 543.420355899141C1155.997583378091 544.8505370454837 1130.2223391891187 519.2634558477591 1161.892467023478 508.8852373541469C1201.8045017743761 497.7728805673408 1213.9832341889694 473.5621009839335 1255.1499262362856 471.1913422361188C1285.7620451983819 463.7871196297169 1319.782459931934 452.0323028283292 1283.925453352873 413.1170987585948C1248.1706280008473 378.0913679109717 1226.172291535911 346.9175488936404 1189.9177750614326 371.3376160425256C1135.889184242464 404.83810515977 1096.780951408766 441.4092528929356 1042.6006315552274 474.6242042259212C1018.7661779543154 491.5677149032737 991.7115322345036 505.6322902774517 985.7837156152464 468.5349270266621C977.9732009870618 438.0956616733659 964.773665059875 416.9552440124218 988.3352793565432 392.7000790876541C1015.2873878171698 376.3999185052585 1027.6202821526906 344.7954786025645 1012.8421590113242 331.6999040631627C999.3835503563585 286.4823375524252 935.5863867618722 297.8801134461063 894.3502091066244 297.8768498180653C863.6262367107528 301.0925321963993 822.0290424554572 317.7654584397908 826.4593285133401 356.4441384845761C830.8505697121118 395.389961319206 842.2091227306072 432.6988076670649 855.8913195757407 469.4843460931913C779.86813062941 497.9341631312675 696.9521592600786 481.090816165434 617.4091178019747 486.8112440573465C584.4822024121667 482.8602366119859 583.2751347464583 471.3013561704529 593.7773058330752 440.5270645640553C582.8445138610957 378.9342740259746 676.2186863465255 404.0850971626292 665.7308692894208 353.4400578806949C649.1467730674411 304.6390871194185 588.42579252107 307.0021318373178 539.2600371528257 315.0850703989044C498.0924846944803 313.3048503104708 472.9307076353458 349.5874339861033 470.5201207576902 387.4681273054711C457.9968441638538 426.1046768791791 470.0878977276528 512.722492527599 407.417807308651 498.8829294721884C370.1606627628338 450.8126553599894 341.5110879531598 380.9893509341686 275.8555848826722 366.8877482163959C225.2639088861462 371.1509365185695 204.358650460243 424.5648971693439 215.3894580831033 470.7304586180107C219.2579135406292 507.9243659201278 256.4455724785148 522.3590367141773 286.1211785395176 535.8843420585669C318.5948353330956 555.4683058373198 288.0406071985811 581.7292372175134 262.6230566429236 586.9156168845033C225.4837350032627 606.1158373443035 184.203688253272 609.4944637699306 144.7764150100052 618.4244621549361C111.6955453846902 628.757820597655 73.4501624002613 635.8901533188795 47.8169904671782 662.3350939819047C57.2613425653451 678.6565571546056 92.7184918103467 652.788032542347 111.0578146638334 653.5102437585173C130.9653048572446 647.4587059671527 214.6193012040733 625.0350297604114 190.2298528200835 662.572448748537C147.8945505131224 680.6069012720229 191.6853359845492 708.5109210242283 203.6997358264644 730.6932667719964C274.2039932761458 819.2837378858972 297.4619299505154 903.3541553691746 393.1910355546948 969.9697288013438C428.1842784686351 996.3066137068598 493.1142651578269 1035.4407063423823 535.4623608867095 1044.5949456431638C625.4018615522414 1056.3305960471462 718.6217000345376 1059.319129913813 802.5755051209687 1041.0939628353378z" />
    <glyph glyph-name="entite"
      unicode="&#xEA03;"
      horiz-adv-x="1315.6748" d=" M844.35594 831.26901A112.45969999999998 112.45969999999998 0 0 0 731.89625 718.80932A112.45969999999998 112.45969999999998 0 0 0 619.43651 831.26901A112.45969999999998 112.45969999999998 0 0 0 731.89625 943.72872A112.45969999999998 112.45969999999998 0 0 0 844.35594 831.26901zM665.61842 721.6926C686.48524 709.1021 710.24933 702.43498 734.46581 702.37698C757.37535 702.37698 779.91466 708.30108 800.0001 719.59055C807.47401 718.79698 815.30308 718.24536 826.8703399999999 715.82054C839.3049599999999 713.2140700000001 843.4574399999999 709.3380900000001 845.92694 707.67861C845.92694 707.67861 845.3889499999999 707.77461 818.8760299999999 680.0063600000001C791.6517899999999 651.4940600000001 788.2320599999999 608.6909600000001 788.2320599999999 608.6909600000001C788.2320599999999 608.6909600000001 763.43841 617.5277400000001 734.5147 619.4209000000001C705.5909899999999 621.3142600000001 667.71533 615.6334600000001 667.71533 615.6334600000001C667.71533 615.6334600000001 664.99513 643.9151100000001 642.92544 669.2763700000002C621.23265 694.2041000000002 603.63137 708.9644700000001 603.63137 708.9644700000001C611.0823499999999 716.7058800000001 615.42748 716.2490700000001 626.97258 718.8113800000001C638.51774 721.3736800000001 652.83749 721.7822700000002 665.61842 721.6926000000001zM638.8376900000001 594.27563C600.36521 569.55756 573.3861200000001 527.7495799999999 568.4517900000001 479.19786C552.7755500000001 471.69181 535.3548300000001 467.36113 516.89921 467.36113C449.4991500000001 467.36113 394.8684500000001 523.33792 394.8684500000001 592.38978C394.8684500000001 661.4495 449.4991500000001 717.4145699999999 516.89921 717.4145699999999C583.6827000000001 717.4145699999999 637.8239100000001 662.4408099999999 638.8376900000001 594.2756299999999zM718.78781 338.2743000000001C651.39908 338.2743000000001 596.7646100000001 394.2667700000001 596.7646100000001 463.2988300000001C596.7646100000001 532.3409700000001 651.39908 588.3236700000001 718.78781 588.3236700000001C786.1822500000001 588.3236700000001 840.83986 532.3428800000002 840.83986 463.2988300000001C840.83986 394.2667700000001 786.1822500000001 338.2743000000001 718.78781 338.2743000000001zM667.0232000000001 329.7648700000001L770.5619900000002 329.7648700000001C856.7146200000002 329.7648700000001 926.8210800000002 257.9445300000001 926.8210800000002 169.6665000000001L926.8210800000002 39.9178999999999L926.4918700000002 37.8856999999998L917.7756600000002 35.1093999999998C835.5530900000001 8.7993999999999 764.1205700000002 -0.0001000000002 705.3208600000002 -0.0001000000002C590.4987700000001 -0.0001000000002 523.9177000000002 33.5453999999997 519.8159600000001 35.6918999999998L511.6608100000001 39.9198999999999L510.7953800000001 39.9198999999999L510.7953800000001 169.6683999999998C510.7953800000001 257.9445299999998 580.8593600000002 329.7648699999998 667.0234600000001 329.7648699999998zM465.1077400000001 458.8283100000001L567.8696900000001 458.8283100000001C568.9857200000001 416.7021700000002 586.5335300000002 378.7668200000001 614.2854200000002 351.4993500000001C537.7026900000002 328.1673400000001 481.6707500000002 255.4128700000001 481.6707500000002 169.4688000000001L481.6707500000002 129.4895000000001C380.2291600000002 133.3166000000001 321.7607900000002 162.7566000000002 317.9098300000002 164.7413000000002L309.7526300000002 168.9908L308.8873600000002 168.9908L308.8873600000002 298.7629100000001C308.8773600000002 387.01748 378.9763000000002 458.8283100000001 465.1077400000001 458.8283100000001zM437.63928 720.0803699999999C399.16486 695.3582399999999 372.18764 653.5485499999999 367.26497 604.99678C351.58682 597.4905299999999 334.16802 593.1677699999999 315.71249 593.1677699999999C248.2988 593.1677699999999 193.67196 649.1368499999999 193.67196 718.1787299999999C193.67196 787.2403999999999 248.3006700000001 843.2033299999998 315.71249 843.2033299999998C382.48623 843.2033299999998 436.62347 788.2276799999999 437.63928 720.0803699999999zM263.93264 584.6327899999999L366.67324 584.6327899999999C367.78919 542.5070099999999 385.33507 504.5715499999999 413.08696 477.3059799999999C336.50612 453.9820499999998 280.47422 381.2175499999999 280.47422 295.2736699999998L280.47422 255.2944099999999C179.04233 259.11358 120.56258 288.54942 116.71141 290.54797L108.56591 294.7838L107.68885 294.7838L107.68885 424.5718099999999C107.68285 512.8183599999999 177.77794 584.6327899999999 263.93264 584.6327899999999zM932.90995 467.3592299999999C909.0362 467.3592299999999 886.8374 474.50389 868.0115499999999 486.6664199999999C862.0249399999999 526.6376999999999 841.10773 561.5734799999999 811.23944 585.35566C811.11471 587.7016199999999 810.90402 590.01812 810.90402 592.3878199999999C810.90402 661.4476 865.55012 717.4124599999999 932.9098 717.4124599999999C1000.3273999999998 717.4124599999999 1054.9504 661.4495 1054.9504 592.3878199999999C1054.9504 523.32404 1000.3293 467.3592299999999 932.9098 467.3592299999999zM823.31709 351.49935C850.93988 378.63653 868.42795 416.3645899999999 869.7156 458.2455799999999C873.51456 458.5360199999999 877.28658 458.82846 881.17058 458.82846L984.69755 458.82846C1070.8618 458.82846 1140.9569 387.0176399999999 1140.9569 298.7513899999999L1140.9569 168.9911L1140.6371 166.9709L1131.9094 164.1826000000001C1065.9626 143.0544 1007.0837 133.3446000000001 955.94556 130.3095000000001L955.94556 169.4829C955.9363 255.41302 899.91756 328.17922 823.3173 351.4995499999999zM588.26695 1244.23517133C597.44959 1244.0039980699999 606.0578899999999 1238.8356245999998 611.48718 1230.188132L758.18656 996.3515799999998L927.02956 1150.506901C945.76302 1167.6060439999999 973.42149 1153.238543 974.74246 1125.72202L988.56982 837.5057899999999L1202.8442 861.8818999999999C1226.6157 864.5866599999999 1243.1549 835.2530199999999 1231.3762 811.27838L1107.9532 560.1856699999998L1299.6288 447.0372399999999C1320.8924 434.48386 1321.0581 399.4927599999999 1299.9148 386.6718799999999L1178.423 313.0382399999999C1177.8966 328.9315499999999 1171.8843 339.3825199999999 1171.0556 348.1561699999999C1170.0686999999998 358.6039499999999 1165.6825999999999 368.9629399999999 1159.6074999999998 378.6917499999999L1222.1906999999999 416.3705499999999L1061.9872999999998 510.9320999999999C1077.1944999999998 535.9421999999998 1085.2710999999997 564.8114099999999 1085.3052999999998 594.2773799999999C1085.2702999999997 609.4082799999999 1083.1237999999998 624.4564099999999 1078.9166999999998 638.9604299999999L1152.0669999999998 787.7778199999998L963.7459399999998 766.3639499999999C947.0564399999998 764.4648399999999 932.3587999999997 778.9930399999998 931.4266099999998 798.3111799999999L919.03354 1056.4933099999998L789.93818 957.55055C776.00048 965.29978 758.4405399999999 972.01945 739.18261 973.39156C719.92462 974.7637 707.4056899999999 971.6059599999998 695.52069 968.16794L597.07232 1137.19274L535.72789 930.66726C530.28837 912.36619 512.72718 902.98255 497.11043 910.03237L288.40008 1004.266L317.92225 865.72737C315.4242900000001 865.8886499999999 312.92232 865.98043 310.4194300000001 866.00098C292.91212 865.96638 275.57517 862.4790499999999 259.3561100000001 855.72605L217.5914400000001 1051.71835C211.8920900000001 1078.47914 234.7066400000001 1101.5359899999999 256.9505700000001 1091.49512L489.93885 986.2807599999998L559.73856 1221.2785549999999C562.99464 1232.2264499999999 570.85425 1240.5114388 580.59834 1243.2670853C582.50733 1243.80642558 584.4583700000001 1244.1243848 586.42217 1244.2159708899999C587.03898 1244.2428514911999 587.6547700000001 1244.2505316699999 588.2669000000001 1244.23517133zM190.39599 792.28666C179.74967 772.01983 174.15782 749.3711799999999 174.11776 726.3556199999999C174.18186 723.9847799999999 174.29018 721.61579 174.46348 719.2510699999999L91.009481 699.91987L185.20771 596.93491C171.58433 591.14901 154.84489 583.1236399999999 146.58272 575.42829C143.5416 572.5958599999999 138.87749 567.01603 133.45921 559.8229399999999L9.2194587 695.6656399999999C-8.1120834 714.62244 0.27309286 748.24316 23.68674 753.6745799999999z" />
    <glyph glyph-name="ruban-noir"
      unicode="&#xEA04;"
      horiz-adv-x="1244.243" d=" M787.2610861297318 737.374520246439C764.4914906138599 813.3476385337974 738.4362391793919 882.9332080224735 738.4362391793919 882.9332080224735C738.4362391793919 882.9332080224735 746.9789445677421 849.705050130338 700.12549116856 773.7641921904477C635.1023605395407 668.3051163172526 639.0122910826702 677.9832205576804 271.3802503509392 166.2695890187931L366.0399973656963 36.9378560192092C366.0399973656963 36.9378560192092 672.0331330645624 480.8724975276335 773.1327656797682 629.3991372707325C788.4767788196126 652.0459011933336 805.5950461554988 677.4993153456588 787.2610861297319 737.3745202464389z M705.448253756686 917.2904780759922C658.2662347656442 940.195324778338 576.6833983069 950.3573342307872 516.6216081149611 917.2904780759922C516.6216081149611 917.2904780759922 480.150827418543 896.0954297894554 526.4457193115638 818.5738148236285C526.4457193115638 818.5738148236285 566.5635780776237 830.9940485988442 611.0513592154165 830.9940485988442C655.5391403532093 830.9940485988442 695.6241425600832 818.5738148236285 695.6241425600832 818.5738148236285C741.919034453104 896.0954297894554 705.448253756686 917.2904780759922 705.448253756686 917.2904780759922z M718.0980290432814 490.9377259376786C691.2542201883502 451.7091434164779 661.5518906842404 408.609319199106 631.4552824698991 364.6707259475636C743.2004402613566 202.1108350558443 857.0484178407155 36.9055956717414 857.0484178407155 36.9055956717414L951.7738779738444 166.2373286713253C847.158593525741 311.8282767948275 772.6399172919786 415.0613886927245 718.0980290432814 490.9377259376786z M505.6803739060358 547.9094995663304C544.451113745471 601.8165401855133 571.4263488371461 639.59340707065 591.6002761773269 668.2405956223163C562.5222212977503 710.1145266359007 547.7039131048814 733.6323199401403 522.8972109194799 773.7964525379158C476.0766140794838 849.7373104778061 484.6193194678339 882.9654683699416 484.6193194678339 882.9654683699416C484.6193194678339 882.9654683699416 458.5312114741799 813.3798988812655 435.7287593991221 737.374520246439C417.4276559325412 677.4993153456588 434.5459232684275 652.0136408458657 449.8899364082719 629.3668769232645C464.6753880419549 607.7847044671105 483.8307620473708 579.7504625173378 505.6803739060358 547.9094995663303z" />
    <glyph glyph-name="vote"
      unicode="&#xEA05;"
      horiz-adv-x="1244.243" d=" M1122.73489453125 145.8097265624999H815.5186609882812L1225.7883489414062 556.079414515625C1250.340276732422 580.6313423066406 1250.340276732422 620.5759168984375 1225.7883489414062 645.1254145273438L742.3221782539061 1128.5940153769532C730.4289648906249 1140.4872287402343 714.6183302070312 1147.036515625 697.7991782480467 1147.036515625S665.1669614433592 1140.4872287402343 653.2761782421873 1128.5940153769532L18.4546510585938 493.7749183554687C6.5614376953125 481.8817049921875 0.0121508105469 466.0710703085937 0.0121508105469 449.2519183496093C0.0121508105469 432.4327663906249 6.5614376953125 416.6197015449218 18.4546510585938 404.7289183437498L277.3714126777344 145.8097265624999H24.30162109375C10.8798357636719 145.8097265624999 0 134.9298907988282 0 121.5081054687501S10.8798357636719 97.206484375 24.30162109375 97.206484375H1122.73489453125C1136.156679861328 97.206484375 1147.036515625 108.0863201386719 1147.036515625 121.5081054687501S1136.156679861328 145.8097265624999 1122.73489453125 145.8097265624999zM346.1061177792968 145.8097265624999L52.822003609375 439.0962708945312C50.1099426953125 441.8083318085936 48.6153929980469 445.4146923789063 48.6153929980469 449.2519183496093S50.1099426953125 456.6955048906249 52.822003609375 459.4075658046874L687.6435307929687 1094.2266628261718C690.3555917070312 1096.9387237402343 693.9619522773437 1098.4332734375 697.7991782480467 1098.4332734375S705.2427647890623 1096.9387237402343 707.9548257031248 1094.2266628261718L1191.4209963906246 610.7604921386718C1197.022520052734 605.1613986386719 1197.022520052734 596.0507208906249 1191.4209963906246 590.4491972285156L746.7815257246094 145.8097265624999H346.1061177792968z M431.0232723671875 424.5444601835937C425.2006039531251 436.639377001953 410.6730948632813 441.7184158105469 398.58546853125 435.8981775585937C386.4905517128906 430.0755091445312 381.4090827421874 415.5528603789062 387.23175115625 403.4603737226562L437.5312464960938 298.9925649648437L333.0658679003907 349.2920603046874C320.9709510820313 355.1147287187499 306.4483023164063 350.028399423828 300.6280640644532 337.9383429296874C294.8053956503906 325.8458562734374 299.8868646210938 311.3207773457031 311.9793512773438 305.5005390937498L479.0043930546875 225.0791844082029C482.3677374140624 223.4606964433592 485.9692376601563 222.6733239199216 489.5391457988281 222.6733239199216C495.8478466347656 222.6733239199216 502.0666314726562 225.1302178124998 506.7301125605469 229.7912687382809C514.0327496992188 237.0939058769528 515.9234158203125 248.2143276894529 511.442196890625 257.5169882441403L431.0232723671875 424.5444601835937z M609.0642389863281 527.3354570859374C575.7126941972656 560.6845717128906 521.4447441328125 560.6870018749999 488.0883390195312 527.3354570859374C454.7367942304688 493.9814821347655 454.7367942304688 439.7135320703125 488.0883390195312 406.3595571191405L525.2042049160156 369.2436912226562C541.8799773105468 352.5679188281248 563.785458564453 344.2300326308593 585.6933699804687 344.2300326308593C607.5988512343749 344.2300326308593 629.5043324882812 352.5679188281248 646.1801048828124 369.2436912226562C679.5316496718749 402.5976661738281 679.5316496718749 456.8656162382811 646.1801048828124 490.219591189453L609.0642389863281 527.3354570859374zM611.8127523320312 403.6110437734375C597.411611671875 389.2074729511718 573.9751282890625 389.2099031132813 559.5739876289063 403.6110437734375L522.4581217324219 440.726909669922C508.0545509101563 455.1280503300782 508.0545509101563 478.5621035507813 522.4581217324219 492.9656743730469C529.6586920625 500.166244703125 539.1168829921875 503.7677449492187 548.5775040839843 503.7677449492187C558.0381251757813 503.7677449492187 567.4963161054687 500.1662447031249 574.6968864355468 492.9656743730469L611.8127523320312 455.8498084765624C626.2163231542969 441.4462376542969 626.2163231542969 418.0121844335937 611.8127523320312 403.6110437734375z M904.5379292167968 696.3386508203124L865.0405044531251 656.8412260566405C862.8509283925781 654.6467896718749 859.2858805781251 654.6492198339844 857.0914441933594 656.8412260566405L833.5723352988282 680.3603349511718L859.6917176503906 706.4797173027342C869.1815006874999 715.9695003398436 869.1815006874999 731.3572868164061 859.6917176503906 740.8495000156249C850.2019346132813 750.3392830527342 834.8141481367187 750.3392830527342 825.3219349374999 740.8495000156249L799.2025525859375 714.7301176640624L775.6834436914062 738.2492265585936C773.49143746875 740.4412327812499 773.49143746875 744.006280595703 775.6834436914062 746.1982868183593L815.1832986171875 785.6957115820311C824.6730816542968 795.1854946191404 824.6755118164062 810.5732810957029 815.1832986171875 820.0630641328123C805.6910854179688 829.5528471699217 790.3057291035155 829.5528471699217 780.8159460664062 820.0630641328123L741.316091140625 780.5632092070312C720.1761109511718 759.4207988554685 720.1761109511718 725.0242843593749 741.316091140625 703.879443845703L822.7240916425782 622.4714433437498C832.9672249335937 612.2307402148436 846.5834232324219 606.5903339589842 861.067189404297 606.5903339589842C875.5485254140626 606.5903339589842 889.167153875 612.2307402148436 899.4078570039063 622.4714433437498L938.9052817675782 661.9688681074217C948.3950648046874 671.458651144531 948.3950648046874 686.8464376210935 938.9052817675782 696.3386508203123C929.4179288925782 705.8284338574218 914.0301424160156 705.8284338574218 904.5379292167968 696.3386508203124z M677.0261525371094 647.5361353398437L699.5367441562499 670.0467269589843C709.0265271933592 679.5365099960937 709.0265271933592 694.9242964726562 699.5367441562499 704.4140795097655S674.659174642578 713.903862546875 665.1693916054687 704.4140795097655L625.4799840351562 664.7246719394531C625.4775538730469 664.7222417773437 625.4751237109375 664.7198116152343 625.4751237109375 664.7198116152343S625.4726935488281 664.7149512910156 625.4702633867187 664.7125211289062L585.7808558164062 625.0231135585938C576.2910727792968 615.5333305214845 576.2910727792968 600.1455440449218 585.7808558164062 590.6557610078125C590.5269624160156 585.9096544082032 596.7457472539062 583.5378161894532 602.9645320917969 583.5378161894532S615.4045319296874 585.9120845703126 620.1482083671874 590.6557610078125L642.6563698242187 613.1663526269531L749.197106861328 506.6256155898437C753.9432134609374 501.8795089902344 760.161998298828 499.5076707714844 766.3807831367187 499.5076707714844S778.8207829746093 501.8795089902344 783.5644594121095 506.6256155898437C793.0542424492188 516.115398626953 793.0542424492188 531.5031851035156 783.5644594121095 540.9953983027342L677.0261525371094 647.5361353398437z M1237.1226250195311 138.6893515820311C1232.6025234960937 143.2094531054688 1226.3327052539062 145.8097265624999 1219.9413789062498 145.8097265624999C1213.5500525585937 145.8097265624999 1207.2802343164062 143.2094531054688 1202.7601327929688 138.6893515820311C1198.240031269531 134.1692500585937 1195.6397578125 127.8994318164062 1195.6397578125 121.5081054687501C1195.6397578125 115.1167791210937 1198.240031269531 108.8469608789062 1202.7601327929688 104.3268593554687C1207.2802343164062 99.8067578320313 1213.5500525585937 97.206484375 1219.9413789062498 97.206484375C1226.3327052539062 97.206484375 1232.6025234960937 99.8067578320313 1237.1226250195311 104.3268593554687S1244.243 115.1167791210937 1244.243 121.5081054687501C1244.243 127.8994318164062 1241.6427265429686 134.1692500585937 1237.1226250195311 138.6893515820311z" />
    <glyph glyph-name="lowercase"
      unicode="&#xEA06;"
      horiz-adv-x="1599.741" d=" M940.0283419734262 28.743473281103Q910.6000681891104 106.6418064796044 884.6339571229431 181.0780081942282Q858.6678460567759 257.2452444165204 830.9706692486698 335.1435776150221L287.4134338353673 335.1435776150221L178.3557736043191 28.743473281103L3.5172997134561 28.743473281103Q72.760260474284 219.1616106882391 133.3478487974382 380.1515055453301Q193.9354371205923 542.8724661443601 251.060865849025 688.2826756211884Q309.9173821833861 833.6928850980167 367.0428327758081 965.254506170792Q424.1682833682301 1098.5472242197766 486.4869311864691 1228.3777483163421L640.5525318415334 1228.3777483163421Q702.8711796597726 1098.5472242197766 759.9966302521944 965.254506170792Q817.1220808446164 833.6928850980166 874.2475314370386 688.2826756211884Q933.1040477713996 542.87246614436 993.6916298476996 380.1515055453301Q1054.2792119239998 219.1616106882391 1123.522185178536 28.743473281103L940.0283419734264 28.743473281103zM782.5006098344837 473.629492889824Q727.1062249840007 624.2329308267398 671.7118713677883 764.4499430777512Q618.0485522592442 906.397989836431 559.1920359248832 1036.2285451672672Q498.6044538485831 906.397989836431 443.2101002323707 764.4499430777512Q389.5468123580972 624.2329308267399 335.8834932495531 473.629492889824L782.5006098344836 473.629492889824z M1363.295014224 78.169033228Q1394.458324402 78.169033228 1418.0668577075 79.1134729146668Q1442.61977145 81.0023522880001 1458.6735575078333 84.7795185380001L1458.6735575078333 231.1525316815Q1449.2301382606665 235.8741968678334 1427.5102769546663 238.7072789291668Q1406.734766460833 242.4846229281667 1376.5158070949997 242.4846229281667Q1356.6846177885 242.4846229281667 1334.0204352951664 239.6516001165001Q1312.3005739891662 236.8185773048333 1293.4137058699996 227.3751580576667Q1275.4712181878328 218.8761192474999 1263.1947465041662 202.8223035648334Q1250.9183636949997 187.7128090695001 1250.9183636949997 162.2156037645002Q1250.9183636949997 114.9985075286668 1281.1372934359997 96.1116394095002Q1311.3561935521664 78.1691517273334 1363.2950142239997 78.1691517273334zM1355.7402966011666 518.2323938458334Q1408.6234384603333 518.2323938458334 1444.5084730743333 504.0672501626667Q1481.337769626 490.8464869165 1503.057630932 465.3492223618333Q1525.721872675 440.7963382441667 1535.1652326725 405.8557136920001Q1544.6086815445 371.8593807023334 1544.6086815445 330.3083300898335L1544.6086815445 23.3972193693335Q1533.2765902978333 21.5083399960001 1512.5010501791667 17.7312033708333Q1492.6698904975 14.8981805591668 1467.1726259428333 12.0651281226669Q1441.6753910129999 9.2321053110002 1411.456461272 7.3433740618334Q1382.1818823431668 4.5103512501669 1352.9072737895 4.5103512501669Q1311.3561935521668 4.5103512501669 1276.4155690000002 13.0094196851669Q1241.4749148230003 21.5085177450001 1215.9776798931669 39.4510350520002Q1190.4804449633336 58.3378439215001 1176.315330905 88.5567736625003Q1162.1502168466668 118.7757330283334 1162.1502168466668 161.2711048281669Q1162.1502168466668 201.8778342533337 1178.2039732796668 231.1524131821671Q1195.2021693993336 260.4270217358336 1223.5323975160002 278.3695094180003Q1251.8626552575004 296.311997100167 1289.6363618710002 304.8110951600003Q1327.4100092348335 313.3101635950003 1368.9610894721668 313.3101635950003Q1382.181882343167 313.3101635950003 1396.346966776667 311.4212842216671Q1410.5121104598334 310.4768445350003 1422.7886117683336 307.6439105978336Q1436.0093453896668 305.7550312245004 1445.452794261667 303.8665369740003Q1454.896183884 301.9779538490003 1458.6735575078335 301.0335141623337L1458.6735575078335 325.5864279048336Q1458.6735575078335 347.3062595860003 1453.9518626966667 368.0817997046669Q1449.2301382606668 389.8016610106669 1436.9537258266669 405.8554766933336Q1424.6772541430003 422.853643188167 1402.957392837 432.2970624353336Q1382.1818823431668 442.6848028698337 1348.1855493535002 442.6848028698337Q1304.7458267415002 442.6848028698337 1271.6938149391667 436.0744360591671Q1239.5862428235 430.4083608110003 1223.532397516 423.7979643755005L1213.1446570815 496.5124436653338Q1230.1427939515 504.0671909130003 1269.805142939667 510.6775577236671Q1309.4675215526668 518.2323049713336 1355.7402966011668 518.2323049713336z M1344.0327994665 567.7259215246667C1344.0327994665 567.7259215246667 1264.5599773234999 655.0107825928333 1244.677951803 678.8853765265L1109.9851216978334 831.1336458663332L1210.5507066748332 920.1217274773333L1275.3243678889999 846.9487150171665L1275.3243678889999 1212.1328208989999L1415.4654418428333 1212.1328208989999L1415.4654418428333 847.4784070371666L1479.2553808413331 919.5920650821666L1579.8966572675 830.6796749203331L1427.8753437758335 660.2704940021665L1428.0264304258333 660.2704940021665L1415.1624982971668 646.0445009113331L1393.3694932776668 621.6787272409998L1393.141382061 621.8298138909997L1344.031466349 567.7256845259998z" />
    <glyph glyph-name="uppercase"
      unicode="&#xEA07;"
      horiz-adv-x="1599.741" d=" M928.0648798021862 11.8878798182716Q898.8325754385993 89.267470689427 873.0393784815475 163.2079851803221Q847.2461815244957 238.8680068350727 819.7334463773137 316.2475977062283L279.7958794956302 316.2475977062283L171.4644584812675 11.8878798182716L-2.2097271234174 11.8878798182716Q66.5721293603025 201.0379804945601 126.7562514565868 360.9558078335364Q186.9403735528711 522.5931733626428 243.6853913452478 667.0350639116233Q302.149969046147 811.4769544606036 358.8950085569159 942.162477435993Q415.6400480676848 1074.5675696277872 477.5437021488445 1203.5335233867718L630.5833457010251 1203.5335233867718Q692.4869997821847 1074.5675696277872 749.2320392929538 942.162477435993Q805.9770788037226 811.4769544606036 862.7221183144916 667.0350639116233Q921.1866960153908 522.5931733626429 981.3708119064202 360.9558078335365Q1041.5549277974496 201.0379804945603 1110.3367966916794 11.8878798182718L928.0648798021862 11.8878798182718zM771.586159869745 453.8113044684131Q716.5606585491063 603.4118406140589 661.5351882547423 742.6951165926484Q608.2292251242337 883.6978997350936 549.7646474233345 1012.6638845203528Q489.5805315323051 883.6978997350936 434.5550612379411 742.6951165926484Q381.2491291337072 603.4118406140587 327.9431660031987 453.8113044684131L771.586159869745 453.8113044684131z M1357.1148355431333 73.6587264150833Q1388.2781457211333 73.6587264150833 1411.8866790266334 74.6031661017501Q1436.4395927691332 76.4920454750834 1452.4933788269666 80.2692117250833L1452.4933788269666 226.6422248685833Q1443.0499595797999 231.3638900549166 1421.3300982737999 234.1969721162501Q1400.5545877799664 237.97431611525 1370.3356284141332 237.97431611525Q1350.5044391076333 237.97431611525 1327.8402566142997 235.1412933035833Q1306.1203953082997 232.3082704919167 1287.233527189133 222.86485124475Q1269.2910395069664 214.3658124345832 1257.0145678232998 198.3119967519167Q1244.738185014133 183.2025022565833 1244.738185014133 157.7052969515835Q1244.738185014133 110.4882007157501 1274.957114755133 91.6013325965835Q1305.1760148712997 73.6588449144167 1357.114835543133 73.6588449144167zM1349.5601179202997 513.7220870329166Q1402.4432597794664 513.7220870329166 1438.3282943934664 499.55694334975Q1475.157590945133 486.3361801035833 1496.8774522511333 460.8389155489167Q1519.5416939941333 436.2860314312501 1528.985053991633 401.3454068790834Q1538.4285028636332 367.3490738894167 1538.4285028636332 325.7980232769168L1538.4285028636332 18.8869125564167Q1527.0964116169664 16.9980331830834 1506.3208714982998 13.2208965579166Q1486.4897118166332 10.3878737462501 1460.9924472619666 7.5548213097502Q1435.4952123321332 4.7217984980834 1405.2762825911332 2.8330672489167Q1376.0017036622999 0.0000444372502 1346.7270951086334 0.0000444372502Q1305.1760148713 0.0000444372502 1270.2353903191333 8.4991128722502Q1235.2947361421336 16.9982109320833 1209.7975012123002 34.9407282390835Q1184.3002662824667 53.8275371085836 1170.1351522241332 84.0464668495836Q1155.9700381658 114.2654262154167 1155.9700381658 156.7607980152502Q1155.9700381658 197.367527440417 1172.0237945988001 226.6421063692503Q1189.0219907184667 255.9167149229169 1217.3522188351333 273.8592026050835Q1245.6824765766335 291.8016902872503 1283.4561831901333 300.3007883470837Q1321.2298305539666 308.7998567820836 1362.7809107913001 308.7998567820836Q1376.0017036623 308.7998567820836 1390.1667880958 306.9109774087504Q1404.3319317789665 305.9665377220836 1416.6084330874667 303.1336037849169Q1429.8291667088 301.2447244115837 1439.2726155808 299.3562301610836Q1448.7160052031331 297.4676470360836 1452.4933788269666 296.5232073494169L1452.4933788269666 321.0761210919169Q1452.4933788269666 342.7959527730837 1447.7716840158 363.5714928917502Q1443.0499595797999 385.2913541977502 1430.7735471458 401.3451698804169Q1418.4970754621334 418.3433363752503 1396.7772141561334 427.7867556224169Q1376.0017036622999 438.174496056917 1342.0053706726333 438.174496056917Q1298.5656480606333 438.174496056917 1265.5136362582998 431.5641292462504Q1233.406064142633 425.8980539980836 1217.352218835133 419.2876575625837L1206.9644784006332 492.002136852417Q1223.9626152706333 499.5568841000836 1263.6249642588 506.1672509107503Q1303.2873428717999 513.7219981584169 1349.5601179203 513.7219981584169z M1337.8526207856332 1207.6222889373498C1337.8526207856332 1207.6222889373498 1258.3797986426332 1120.33741601925 1238.4977731221334 1096.4628220855832L1103.8049430169667 944.2145527457498L1204.3705279939666 855.2264711347499L1269.1441892081332 928.3994835949165L1269.1441892081332 563.2153777130832L1409.2852631619667 563.2153777130832L1409.2852631619667 927.8697915749163L1473.0752021604667 855.7561335299165L1573.7164785866332 944.6685236917498L1421.6951650949668 1115.0777046099165L1421.8462517449666 1115.0777046099165L1408.9823196163002 1129.3036977007498L1387.1893145968002 1153.669471371083L1386.9612033801334 1153.5183847210833L1337.8512876681334 1207.6225229735333z" />
    <glyph glyph-name="sort"
      unicode="&#xEA08;"
      horiz-adv-x="777.651875" d=" M99.636646484375 544.3563125L678.0152285156249 544.3563125C730.0206976562499 544.3563125 756.0234322265625 481.4151138671875 719.3279843749999 444.719666015625L430.138693359375 155.5303750000001C407.29516953125 132.6868511718751 370.35670546875 132.6868511718751 347.7561978515625 155.5303750000001L58.323890625 444.719666015625C21.6284427734375 481.4151138671875 47.63117734375 544.3563125 99.636646484375 544.3563125zM719.3279843749999 804.3836582031249L430.138693359375 1093.57294921875C407.29516953125 1116.416473046875 370.35670546875 1116.416473046875 347.7561978515625 1093.57294921875L58.323890625 804.3836582031249C21.6284427734375 767.6882103515625 47.63117734375 704.74701171875 99.636646484375 704.74701171875L678.0152285156249 704.74701171875C730.0206976562499 704.74701171875 756.0234322265625 767.6882103515625 719.3279843749999 804.3836582031249z" />
    <glyph glyph-name="sort-up"
      unicode="&#xEA09;"
      horiz-adv-x="777.651875" d=" M678.0152285156249 699.8866875H99.636646484375C47.63117734375 699.8866875 21.6284427734375 762.8278861328124 58.323890625 799.523333984375L347.513181640625 1088.712625C370.35670546875 1111.556148828125 407.29516953125 1111.556148828125 429.8956771484375 1088.712625L719.0849681640624 799.523333984375C756.0234322265624 762.8278861328124 730.0206976562499 699.8866875 678.0152285156249 699.8866875z" />
    <glyph glyph-name="sort-down"
      unicode="&#xEA10;"
      horiz-adv-x="777.651875" d=" M94.3644292293828 528.5396753159961L672.743016120957 528.5396753159961C724.748485261582 528.5396753159961 750.7512198318946 465.5984766831837 714.055771980332 428.9030288316211L424.866480964707 139.7137378159962C402.022957136582 116.8702139878713 365.0844930740821 116.8702139878713 342.4839854568945 139.7137378159962L53.0516733700078 428.9030288316211C16.3562267335264 465.5984766831837 42.3589600887578 528.5396753159961 94.3644292293828 528.5396753159961z" />
  </font>
</defs>
</svg>
